tooling/transcript
# vsim -do ./config/run.tcl -lib work -c -wlf ./waveform.wlf work.cpu_test 
# Loading work.cpu_test
# Loading work.memory
# Loading work.cpu
# Loading work.register
# Loading work.alu
# do ./config/run.tcl 
# time =    0, out =    x, pc =    0, sp =    0, mem_addr =    0, mem_out = xxxx, mem_data = 0000, mem_we = 0
# time =    5, out =    x, pc =    8, sp =   63, mem_addr =    8, mem_out = 0000, mem_data = 0000, mem_we = 0
# time =   15, out =    x, pc =    9, sp =   63, mem_addr =    0, mem_out = 7101, mem_data = 0000, mem_we = 0
# time =   25, out =    x, pc =    9, sp =   63, mem_addr =    0, mem_out = 0000, mem_data = 0000, mem_we = 0
# time =   35, out =    x, pc =    9, sp =   63, mem_addr =    1, mem_out = 0000, mem_data = 0008, mem_we = 1
# time =   45, out =    x, pc =    9, sp =   63, mem_addr =    9, mem_out = 0008, mem_data = 0000, mem_we = 0
# time =   55, out =    x, pc =   10, sp =   63, mem_addr =    0, mem_out = 8101, mem_data = 0000, mem_we = 0
# time =   65, out =    x, pc =   10, sp =   63, mem_addr =    1, mem_out = 0000, mem_data = 0000, mem_we = 0
# time =   75, out =    x, pc =   10, sp =   63, mem_addr =    0, mem_out = 0008, mem_data = 0000, mem_we = 0
# time =   85, out =    8, pc =   10, sp =   63, mem_addr =   10, mem_out = 0000, mem_data = 0000, mem_we = 0
# time =   95, out =    8, pc =   11, sp =   63, mem_addr =    0, mem_out = 0210, mem_data = 0000, mem_we = 0
# time =  105, out =    8, pc =   11, sp =   63, mem_addr =    1, mem_out = 0000, mem_data = 0000, mem_we = 0
# time =  115, out =    8, pc =   11, sp =   63, mem_addr =    0, mem_out = 0008, mem_data = 0000, mem_we = 0
# time =  125, out =    8, pc =   11, sp =   63, mem_addr =    2, mem_out = 0000, mem_data = 0008, mem_we = 1
# time =  135, out =    8, pc =   11, sp =   63, mem_addr =   11, mem_out = 0008, mem_data = 0000, mem_we = 0
# time =  145, out =    8, pc =   12, sp =   63, mem_addr =    0, mem_out = 1312, mem_data = 0000, mem_we = 0
# time =  155, out =    8, pc =   12, sp =   63, mem_addr =    1, mem_out = 0000, mem_data = 0000, mem_we = 0
# time =  165, out =    8, pc =   12, sp =   63, mem_addr =    2, mem_out = 0008, mem_data = 0000, mem_we = 0
# time =  175, out =    8, pc =   12, sp =   63, mem_addr =    3, mem_out = 0008, mem_data = 0000, mem_we = 0
# time =  185, out =    8, pc =   12, sp =   63, mem_addr =    3, mem_out = 0000, mem_data = 0010, mem_we = 1
# time =  195, out =    8, pc =   12, sp =   63, mem_addr =   12, mem_out = 0010, mem_data = 0000, mem_we = 0
# time =  205, out =    8, pc =   13, sp =   63, mem_addr =    0, mem_out = 8301, mem_data = 0000, mem_we = 0
# time =  215, out =    8, pc =   13, sp =   63, mem_addr =    3, mem_out = 0000, mem_data = 0000, mem_we = 0
# time =  225, out =    8, pc =   13, sp =   63, mem_addr =    0, mem_out = 0010, mem_data = 0000, mem_we = 0
# time =  235, out =   16, pc =   13, sp =   63, mem_addr =   13, mem_out = 0000, mem_data = 0000, mem_we = 0
# time =  245, out =   16, pc =   14, sp =   63, mem_addr =    0, mem_out = 7401, mem_data = 0000, mem_we = 0
# time =  255, out =   16, pc =   14, sp =   63, mem_addr =    0, mem_out = 0000, mem_data = 0000, mem_we = 0
# time =  265, out =   16, pc =   14, sp =   63, mem_addr =    4, mem_out = 0000, mem_data = 0009, mem_we = 1
# time =  275, out =   16, pc =   14, sp =   63, mem_addr =   14, mem_out = 0009, mem_data = 0000, mem_we = 0
# time =  285, out =   16, pc =   15, sp =   63, mem_addr =    0, mem_out = 2334, mem_data = 0000, mem_we = 0
# time =  295, out =   16, pc =   15, sp =   63, mem_addr =    3, mem_out = 0000, mem_data = 0000, mem_we = 0
# time =  305, out =   16, pc =   15, sp =   63, mem_addr =    4, mem_out = 0010, mem_data = 0000, mem_we = 0
# time =  315, out =   16, pc =   15, sp =   63, mem_addr =    3, mem_out = 0009, mem_data = 0000, mem_we = 0
# time =  325, out =   16, pc =   15, sp =   63, mem_addr =    3, mem_out = 0010, mem_data = 0007, mem_we = 1
# time =  335, out =   16, pc =   15, sp =   63, mem_addr =   15, mem_out = 0007, mem_data = 0000, mem_we = 0
# time =  345, out =   16, pc =   16, sp =   63, mem_addr =    0, mem_out = 0530, mem_data = 0000, mem_we = 0
# time =  355, out =   16, pc =   16, sp =   63, mem_addr =    3, mem_out = 0000, mem_data = 0000, mem_we = 0
# time =  365, out =   16, pc =   16, sp =   63, mem_addr =    0, mem_out = 0007, mem_data = 0000, mem_we = 0
# time =  375, out =   16, pc =   16, sp =   63, mem_addr =    5, mem_out = 0000, mem_data = 0007, mem_we = 1
# time =  385, out =   16, pc =   16, sp =   63, mem_addr =   16, mem_out = 0007, mem_data = 0000, mem_we = 0
# time =  395, out =   16, pc =   17, sp =   63, mem_addr =    0, mem_out = 8501, mem_data = 0000, mem_we = 0
# time =  405, out =   16, pc =   17, sp =   63, mem_addr =    5, mem_out = 0000, mem_data = 0000, mem_we = 0
# time =  415, out =   16, pc =   17, sp =   63, mem_addr =    0, mem_out = 0007, mem_data = 0000, mem_we = 0
# time =  425, out =    7, pc =   17, sp =   63, mem_addr =   17, mem_out = 0000, mem_data = 0000, mem_we = 0
# time =  435, out =    7, pc =   18, sp =   63, mem_addr =    0, mem_out = 7301, mem_data = 0000, mem_we = 0
# time =  445, out =    7, pc =   18, sp =   63, mem_addr =    0, mem_out = 0000, mem_data = 0000, mem_we = 0
# time =  455, out =    7, pc =   18, sp =   63, mem_addr =    3, mem_out = 0000, mem_data = 0003, mem_we = 1
# time =  465, out =    7, pc =   18, sp =   63, mem_addr =   18, mem_out = 0003, mem_data = 0000, mem_we = 0
# time =  475, out =    7, pc =   19, sp =   63, mem_addr =    0, mem_out = 3553, mem_data = 0000, mem_we = 0
# time =  485, out =    7, pc =   19, sp =   63, mem_addr =    5, mem_out = 0000, mem_data = 0000, mem_we = 0
# time =  495, out =    7, pc =   19, sp =   63, mem_addr =    3, mem_out = 0007, mem_data = 0000, mem_we = 0
# time =  505, out =    7, pc =   19, sp =   63, mem_addr =    5, mem_out = 0003, mem_data = 0000, mem_we = 0
# time =  515, out =    7, pc =   19, sp =   63, mem_addr =    5, mem_out = 0007, mem_data = 0015, mem_we = 1
# time =  525, out =    7, pc =   19, sp =   63, mem_addr =   19, mem_out = 0015, mem_data = 0000, mem_we = 0
# time =  535, out =    7, pc =   20, sp =   63, mem_addr =    0, mem_out = 8501, mem_data = 0000, mem_we = 0
# time =  545, out =    7, pc =   20, sp =   63, mem_addr =    5, mem_out = 0000, mem_data = 0000, mem_we = 0
# time =  555, out =    7, pc =   20, sp =   63, mem_addr =    0, mem_out = 0015, mem_data = 0000, mem_we = 0
# time =  565, out =   21, pc =   20, sp =   63, mem_addr =   20, mem_out = 0000, mem_data = 0000, mem_we = 0
# time =  575, out =   21, pc =   21, sp =   63, mem_addr =    0, mem_out = f000, mem_data = 0000, mem_we = 0
# time =  585, out =   21, pc =   21, sp =   63, mem_addr =    0, mem_out = 0000, mem_data = 0000, mem_we = 0
# ** Note: $finish    : ../src/synthesis/modules/cpu_test.v(25)
#    Time: 2292 ps  Iteration: 0  Instance: /cpu_test
